{
  "file_generated_by": "FlutterFire CLI",
  "purpose": "FirebaseAppID & ProjectID for this Firebase app in this directory",
  "GOOGLE_APP_ID": "1:973975105382:ios:a0317c44233534629962a7",
  "FIREBASE_PROJECT_ID": "holidayexpenditures-db203",
  "GCM_SENDER_ID": "973975105382"
}